Domain,Location on Site,Tech Spend USD,Company,Vertical,Quantcast,Alexa,Majestic,Umbrella,Telephones,Emails,Twitter,Facebook,LinkedIn,Google,Pinterest,GitHub,Instagram,Vk,Vimeo,Youtube,People,City,State,Zip,Country,First Detected,Last Found,First Indexed,Last Indexed,Exclusion,GDPR
"bicyclecards.com","bicyclecards.com","$1000","","Automotive And Vehicles","48376","163234","138222","165588","ph:+1-859-815-7493;+1-800-681-1765;+1-800-693-1228;+1-800-543-2273;+1-866-781-5866;+1-859-815-7300;+1-859-815-7413","","https://twitter.com/bicyclecards","https://facebook.com/bicyclecards","","","","","https://instagram.com/officialbicyclecards","","","https://youtube.com/user/bicyclecards","","Erlanger","KY","41018","US","2018-08-29","2019-12-03","2011-01-03","2019-12-03","-","Non-EU"
"billiongraves.com","blog.billiongraves.com","$500","BillionGraves LLC","Technology And Computing","7128","145705","112934","150994","ph:","lisa@billiongraves.com;support@billiongraves.com;store@billiongraves.com;kristy.stewart@billiongraves.com;hudson@billiongraves.com;hgunn@billiongraves.com;eagle@billiongraves.com;bmoncur@billiongraves.com;rt@billiongraves.com;hgun@billiongraves.com;info@billiongraves.com","https://twitter.com/billiongraves","https://facebook.com/billiongraves","","","","","https://instagram.com/billiongraves","","","","Maria Our - Support - mour@billiongraves.com; Hudson Gunn - Unknown - hgunn@billiongraves.com; Robert Moncur - Other - rmoncur@billiongraves.com","Kaysville","UT","84037","US","2019-11-17","2019-11-17","2011-09-04","2019-12-03","-","Non-EU"
"blender.org","store.blender.org","$250","Blender 3D","Home And Garden","18360","5101","1718","45264","ph:","production@blender.org;projects@blender.org","https://twitter.com/blender_org","https://facebook.com/mango.open.movie","https://linkedin.com/company/blender-org","","","","https://instagram.com/blender.official","","","","N/A - Designer - n/a@blender.org; N/A - Software - n/a@blender.org; N/A - Unknown - n/a@blender.org; N/A - Director - n/a@blender.org; N/A - Founder - n/a@blender.org","Amsterdam","07","1018AD","NL","2017-04-08","2019-11-26","2011-03-02","2019-12-03","-","Netherlands"
"blessthismessplease.com","blessthismessplease.com","$5000","blessthismessplease","Food And Drink","11579","359722","106774","112945","ph:","","https://twitter.com/blessmessblog","https://facebook.com/blessthismessblog","","","https://pinterest.com/blessthismess","","https://instagram.com/blessthismessplease","","","","","","","","","2018-07-02","2019-11-22","2012-09-20","2019-12-03","-","Non-EU"
"boardingarea.com","pointmetotheplane.boardingarea.com;angelinatravels.boardingarea.com","$5000","BoardingArea","Travel","22827","13296","10935","18571","ph:+1-480-255-5559;+1-877-212-7364","privacy@boardingarea.com;randy@boardingarea.com;webmaster@boardingarea.com","https://twitter.com/boardingarea","https://facebook.com/outandoutblog","https://linkedin.com/company/pointshogger","https://google.com/+boardingarea","https://pinterest.com/heelsfirst","","https://instagram.com/milestomemories","","","https://youtube.com/user/magicofmiles","Jennifer Moody - Consultant - jennifer@boardingarea.com; Jason Kessler - Board - jason@boardingarea.com; Chris McGinnis - Founder - chris@boardingarea.com; Shawn Coomer - Founder - shawn@boardingarea.com; Derek Winter - Founder - derek@boardingarea.com","Colorado Springs","CO","80915","US","2017-04-08","2019-10-28","2011-01-03","2019-12-03","-","Non-EU"
"cariboucoffee.com","cariboucoffee.com","$1000","Caribou Coffee Company Inc","Food And Drink","53186","203288","61465","52026","ph:","customerrelations@cariboucoffee.com","https://twitter.com/caribou_coffee","https://facebook.com/cariboucoffee","","","https://pinterest.com/cariboucoffee","","https://instagram.com/cariboucoffee","","","https://youtube.com/user/cariboucoffeecompany","","Minneapolis","MN","55429","US","2019-02-03","2019-12-03","2011-01-03","2019-12-03","-","Non-EU"
"cbn.com","shop.cbn.com","$10000","CBN.com Inc","Technology And Computing","1233","50845","3068","20286","ph:+1-757-226-3320;+1-800-967-6696;+1-800-823-6053;+1-800-700-7000;+1-800-759-0700;+1-757-226-6155;+1-855-332-0032;+1-757-226-3452","newswatch@cbn.com;melissa.charbonneau@cbn.com;revjamesmith@cbn.com;cbn.transfer@cbn.com;adekunleelvis104@cbn.com;cbn@cbn.com;fundsrelease@cbn.com;terzetto@cbn.com;oyy@cbn.com;brownsmith@cbn.com;hammedabdulahi@cbn.com;bianca@cbn.com;prayer@cbn.com;pacific_min@cbn.com;mail-apex@cbn.com;bumikita@cbn.com;storemanager@cbn.com;notification@cbn.com;mohammedabdulahi@cbn.com;beatriz.viera@cbn.com","https://twitter.com/cbnproducers","https://facebook.com/700clubinteractive","","","","","https://instagram.com/700club_interactive","","","https://youtube.com/user/700clubinteractive","Andrew Knox - President - andrew@cbn.com; Gordon Robertson - Csuite - gordon@cbn.com; Terry Meeuwsen - Founder - terry@cbn.com","Virginia Beach","VA","23463","US","2019-03-07","2019-11-25","2011-01-03","2019-12-04","-","Non-EU"
"ccsd.net","promotion.ccsd.net","$1000","","Business And Industrial","5671","154809","91133","75282","ph:+1-702-799-5000;+1-702-799-0591;+1-702-799-0303;+1-702-799-8492;+1-702-799-3300;+1-702-799-5427;+1-702-799-6570","webmaster@ccsd.net","https://twitter.com/ccsd_ell","https://facebook.com/ccsdfaces","","","","","","","","","Nicole Rourke - Marketing - noemail; Clark County - Board - noemail; Lola Brooks - President - noemail; Danielle Ford - President - noemail; Kim Wooden - Csuite - noemail; Billie Rayford - Csuite - noemail; Jason Goudie - Csuite - noemail; Greta Peay - Csuite - noemail","Las Vegas","NV","89146","US","2019-10-24","2019-10-24","2011-01-03","2019-12-03","-","Non-EU"
"churchleaders.com","resources.churchleaders.com","$2000","","Family And Parenting","6554","85727","60443","97432","ph:","support@churchleaders.com;editorial@churchleaders.com;brian@churchleaders.com;rory@churchleaders.com;thomrainer@churchleaders.com;lanesebring@churchleaders.com","https://twitter.com/churchlead","https://facebook.com/churchleaders","","https://google.com/+churchleaders","https://pinterest.com/churchleaders","","https://instagram.com/churchlead","","","","Andrew Hess - Unknown - andrew@churchleaders.com; Jason Daye - Director - jason@churchleaders.com; Dean Sweetman - Founder - dean@churchleaders.com","Colorado Springs","CO","80919","US","2019-06-01","2019-11-29","2011-04-03","2019-12-03","-","Non-EU"
"clashdaily.com","clashdaily.com","$5000","ClashDaily.com Inc","Law  Govt And Politics","3038","178653","106793","118350","ph:","","","https://facebook.com/clashdaily","","","","","","","","https://youtube.com/user/clashdaily","","","","","","2018-09-01","2019-12-03","2012-07-29","2019-12-03","-","Non-EU"
"coasterfurniture.com","coasterfurniture.com","$500","FurnitureDealer.net Inc","Home And Garden","19747","Outside Top 1m","237683","231632","ph:+1-877-221-9666;+1-800-352-5267","","https://twitter.com/coastercompany","https://facebook.com/coasterfurniture","","","https://pinterest.com/coastercompany","","https://instagram.com/coastercompany","","","","Coaster Company - Other - noemail","Santa Fe Springs","CA","90670","US","2019-01-08","2019-12-03","2011-04-03","2019-12-03","-","Non-EU"
"commentarymagazine.com","commentarymagazine.com","$500","Commentary Inc","Law  Govt And Politics","8344","160753","7580","120461","ph:+1-781-467-2525;+1-800-554-8969;+1-212-891-1400","service@commentarymagazine.com;ileyzerzon@commentarymagazine.com;jtobin@commentarymagazine.com;kgjermani@commentarymagazine.com;grosen@commentarymagazine.com;ajtobin@commentarymagazine.com;sroberts@commentarymagazine.com;adrep@commentarymagazine.com;submissions@commentarymagazine.com;permissions@commentarymagazine.com","https://twitter.com/tobincommentary","https://facebook.com/commentarymagazine","","https://google.com/+commentarymagazine-online","","","","","","","Ilya Leyzerzon - Whois - ileyzerzon@commentarymagazine.com; Stephanie Roberts - Manager - sroberts@commentarymagazine.com; Ilya Leyzerzon - Other - ileyzerzon@commentarymagazine.com","New York City","NY","10018","US","2017-04-08","2019-12-03","2011-01-03","2019-12-04","-","Non-EU"
"commonsensehome.com","commonsensehome.com","$5000","","Food And Drink","29622","485937","94607","185048","ph:+1-210-695-4200","laurie@commonsensehome.com;laurieneverman@gmail.com","https://twitter.com/commonsenseidea","https://facebook.com/commonsensehome","","","https://pinterest.com/commonsenseidea","","https://instagram.com/commonsensehome","","","https://youtube.com/user/commonsensehome1","Laurie Neverman - Whois - laurie@commonsensehome.com; August Neverman - Csuite - august@commonsensehome.com; Laurie Neverman - Other - laurie@commonsensehome.com","Denmark","WI","54208","US","2019-03-03","2019-12-03","2012-03-03","2019-12-03","-","Non-EU"
"corcoran.com","corcoranperks.corcoran.com","$2000","Corcoran Group","Real Estate","23299","Outside Top 1m","52381","61658","ph:+1-212-708-1391;+1-800-544-4055;+1-212-223-6381;+1-973-407-5059;+1-718-422-2525;+1-631-899-0620;+1-561-278-0433;+1-305-798-1697","info@corcoran.com;cao@corcoran.com;paul.murphy@corcoran.com;candace.friis@corcoran.com;robert.lohman@corcoran.com;kristin.neinast@corcoran.com;alison.newton@corcoran.com;tena.watt@corcoran.com;debbie.brenneman@corcoran.com;bonita.dewolf@corcoran.com;judith.lief@corcoran.com;paulette.koch@corcoran.com;lynn.nguyen@corcoran.com;joseph.grosso@corcoran.com;amy.katcher@corcoran.com;spencer.cutler@corcoran.com;jim.mccann@corcoran.com;lisa.detwiler@corcoran.com;dana.koch@corcoran.com;mhall@corcoran.com;plw@corcoran.com;relocationdepartment@corcoran.com;anonymous@corcoran.com","https://twitter.com/corcoran_group","https://facebook.com/thecorcorangroup","https://linkedin.com/company/the-corcoran-group","https://google.com/+thecorcorangroup","https://pinterest.com/corcorangroup","","https://instagram.com/thecorcorangroup","","","https://youtube.com/user/thecorcorangroup","Scott Durkin - Director - noemail; Helen Monti - Director - noemail; Leigh Godwin - Director - noemail; Paula Manikowski - Director - noemail; Tim Cass - Director - noemail; Linda Honan - Director - noemail; Janet Lowry - Director - noemail; Juliana Brown - Director - noemail; Michael Sorrentino - Director - noemail; Gina Decker - Director - noemail; Liz Nelson - Director - noemail; Chris Tice - Director - noemail; Jocelyn Haas - Director - noemail; Frank Percesepe - President - noemail; Ernest Cervi - President - noemail; Bill Yahn - President - noemail; Pamela Liebman - President - noemail; Kelly Kennedy - President - noemail; Bill Cunningham - President - noemail; The Corcoran Group - Other - noemail","New York City","NY","10065","US","2019-07-28","2019-11-25","2011-01-03","2019-12-03","-","Non-EU"
"counterpunch.org","store.counterpunch.org","$500","","Law  Govt And Politics","5682","96005","3103","82460","ph:+1-707-629-3683;+1-800-840-3683","counterpunch@counterpunch.org;kolko@counterpunch.org;vips@counterpunch.org;christison@counterpunch.org;avnery@counterpunch.org;stclair@counterpunch.org;nch@counterpunch.org;landau@counterpunch.org;werther@counterpunch.org;rpunch@counterpunch.org;navarro@counterpunch.org;punch@counterpunch.org;erpunch@counterpunch.org;cohn@counterpunch.org;unch@counterpunch.org;terpunch@counterpunch.org;green@counterpunch.org;chuckman@counterpunch.org;mariner@counterpunch.org;pollin@counterpunch.org","https://twitter.com/natcounterpunch","","","","","","","","","","Kevin Martin - Support - martin@counterpunch.org; Becky Grant - Manager - grant@counterpunch.org; Becky Grant - Other - grant@counterpunch.org","Petrolia","CA","95558","US","2017-04-08","2019-11-25","2011-01-03","2019-12-03","-","Non-EU"
"cruisefever.net","cruisefever.net","$2000","Cruise Fever","Travel","56542","89163","215746","57018","ph:+1-877-288-6267;+1-866-509-5766","ben@cruisefever.net;jon@cruisefever.net;info@cruisefever.net;media@cruisefever.net;aben@cruisefever.net;ajon@cruisefever.net","https://twitter.com/cruisefever","https://facebook.com/cruisefever","","","https://pinterest.com/cruisefever","","https://instagram.com/cruisefever","","","https://youtube.com/user/cruisefevervideos","Ben Souza - Other - noemail","Cincinnati","OH","45245","US","2019-03-03","2019-12-03","2011-11-06","2019-12-03","-","Non-EU"
"cz-usa.com","cz-usa.com","$250","CZ-USA","Business And Industrial","50170","147367","95862","168237","ph:+1-913-321-2251;+1-607-336-2730;+1-800-955-4486","gunsmith@cz-usa.com;genny@cz-usa.com;warranty@cz-usa.com;dwparts@cz-usa.com;jason@cz-usa.com;jsimmons@cz-usa.com;mhunter@cz-usa.com;adam@cz-usa.com;webstore@cz-usa.com;brian@cz-usa.com;john@cz-usa.com;angus@cz-usa.com;zach@cz-usa.com;rich@cz-usa.com;dave@cz-usa.com;resume@cz-usa.com;kipp@cz-usa.com;cj@cz-usa.com;keith@cz-usa.com;fieldsports@cz-usa.com","","","","","","","","","","","Jason Morton - Marketing - jason@cz-usa.com; Dereck Miller - Sales - dereck@cz-usa.com; Cindy Johns - Manager - cindy@cz-usa.com; William Patrick - Manager - william@cz-usa.com; Paula Otney - Manager - paula@cz-usa.com; Clay Killer - Manager - clay@cz-usa.com; Alice Poluchova - President - alice@cz-usa.com; Sherri Goodwin - President - sherri@cz-usa.com","Kansas City","KS","66117","US","2017-04-08","2019-12-03","2011-01-03","2019-12-03","-","Non-EU"
"kaiserpermanente.org","graduate-physicaltherapy-education.kaiserpermanente.org","$10000","Kaiser Permanente","Business And Industrial","553","2960","5511","8757","ph:+1-404-364-7000;+1-703-237-4014;+1-303-338-3800;+1-301-468-6000;+1-800-318-1583;+1-877-904-0016;+1-503-286-6816;+1-866-301-3866;+1-866-973-4584;+1-877-220-3956","","https://twitter.com/healthylivingnw","https://facebook.com/kaiserpermanentewashington","https://linkedin.com/company/kaiser-permanente","","","","","","","https://youtube.com/user/kaiserpermanenteorg","Raj Manickam - Consultant - noemail; Bruce Phyper - President - noemail; Amy Gutierrez - President - noemail","Atlanta","GA","30305","US","2017-04-08","2019-11-25","2011-01-03","2019-12-03","-","Non-EU"
"keltecweapons.com","keltecweapons.com","$2000","Kel-Tec","Law  Govt And Politics","22511","Outside Top 1m","186493","Outside Top 1m","ph:+1-321-631-1169;+1-800-777-0133;+1-321-631-0068","","https://twitter.com/keltecweapons","https://facebook.com/keltecweapons","","","","","https://instagram.com/keltecweapons","","","https://youtube.com/user/keltecweapons","Matt Stanek - Marketing - noemail; Nick Lucca - Other - noemail","Cocoa","FL","32926","US","2019-03-21","2019-12-03","2011-01-03","2019-12-03","-","Non-EU"
"kicksonfire.com","kicksonfire.com","$5000","KicksOnFire.com","Law  Govt And Politics","1323","17202","31912","23370","ph:","jane@kicksonfire.com;contact@kicksonfire.com;android@kicksonfire.com;webmaster@kicksonfire.com;info@kicksonfire.com;pr@kicksonfire.com;promo@kicksonfire.com;bugs@kicksonfire.com","https://twitter.com/kicksonfire","https://facebook.com/kicksonfirefans","","","","","https://instagram.com/kicksonfire","","","https://youtube.com/user/kicksonfirecom","Furqan Khan - Unknown - furqan@kicksonfire.com","","","","","2018-02-28","2019-12-03","2011-01-03","2019-12-03","-","Non-EU"
"nationalquilterscircle.com","nationalquilterscircle.com","$2000","National Quilters Circle","Business And Industrial","15847","Outside Top 1m","Outside Top 1m","130009","ph:+1-855-706-3538;+1-866-730-0862","editor@nationalquilterscircle.com","https://twitter.com/quilterscircle","https://facebook.com/nationalquilterscircle","","","","","https://instagram.com/quilterscircle","","","","","Wayzata","MN","55391","US","2017-04-17","2019-12-03","2013-11-12","2019-12-03","-","Non-EU"
"neurosciencenews.com","neurosciencenews.com","$500","","Health And Fitness","67445","116765","18627","239206","ph:","","https://twitter.com/neurosciencenew","https://facebook.com/neurosciencenews","","https://google.com/+neuroscience","https://pinterest.com/neuroscience","","https://instagram.com/neurosciencenew","","","https://youtube.com/user/neurosciencenews","Erik Driscoll - Other - noemail","Spring","TX","77381","US","2017-04-08","2019-12-03","2011-09-04","2019-12-03","-","Non-EU"
"noblepig.com","noblepig.com","$5000","Noble Pig LLC","Food And Drink","6136","Outside Top 1m","96411","166092","ph:+1-503-474-2000","cathy@noblepig.com","https://twitter.com/noblepig","https://facebook.com/noblepig","","","","","https://instagram.com/noblepig","","","","","","","","","2018-04-17","2019-12-03","2011-01-03","2019-12-03","-","Non-EU"
"nomadicmatt.com","nomadicmatt.com","$5000","Nomadic Matt","Travel","40157","22433","13700","65162","ph:","matt@nomadicmatt.com","https://twitter.com/nomadicmatt","https://facebook.com/nomadicmatt","","","https://pinterest.com/nomadicmatt","","https://instagram.com/nomadicmatt","","","","Erica Virvo - Director - noemail","Stamford","CT","06906","US","2017-04-17","2019-12-03","2011-01-03","2019-12-03","-","Non-EU"
"offthegridnews.com","store.offthegridnews.com","$5000","Off The Grid News","Business And Industrial","8907","98807","38179","148476","ph:+1-815-259-0122;+1-815-902-6086","fo@offthegridnews.com;info@offthegridnews.com;editor@offthegridnews.com","","https://facebook.com/offthegridnews","","","https://pinterest.com/offthegridnews","","","","","","","Thomson","IL","61285","US","2018-08-29","2019-11-17","2011-01-03","2019-12-03","-","Non-EU"
"onlocationvacations.com","onlocationvacations.com","$500","","Travel","12697","Outside Top 1m","123704","Outside Top 1m","ph:","olv@onlocationvacations.com","","https://facebook.com/onlocationvacations","","","","","https://instagram.com/onlocationvacations","","","","","","","","","2019-01-08","2019-12-03","2011-01-03","2019-12-03","-","Non-EU"
"onwardstate.com","jobs.onwardstate.com","$5000","Onward State","Sports","7871","204811","78815","106005","ph:+1-814-238-3500","meganfleming@onwardstate.com;tips@onwardstate.com;news@onwardstate.com;kevin@onwardstate.com;alicia@onwardstate.com;noel@onwardstate.com;ted@onwardstate.com;jack@onwardstate.com;cj@onwardstate.com;mikereisman@onwardstate.com;sarahcaskie@onwardstate.com;zach@onwardstate.com;gregschlosser@onwardstate.com;davidabruzzese@onwardstate.com;davis@onwardstate.com;yuka@onwardstate.com;bill@onwardstate.com;mara@onwardstate.com;tim@onwardstate.com;becca@onwardstate.com;willpegler@onwardstate.com","https://twitter.com/onwardstate","https://facebook.com/onwardstate","","","","","https://instagram.com/onwardstate","","","","Tim Gilbert - Unknown - tim@onwardstate.com; Sara Civian - Unknown - sara@onwardstate.com; Anna Foley - Unknown - anna@onwardstate.com; Shannon Fox - Unknown - shannon@onwardstate.com; Jessica Tully - Unknown - jessica@onwardstate.com; Dan Myers - Other - dan@onwardstate.com","State College","PA","16801","US","2017-04-08","2019-11-17","2011-04-03","2019-12-03","-","Non-EU"
"outkickthecoverage.com","outkickthecoverage.com","$250","Fox Sports Interactive Media LLC","Business And Industrial","27726","386401","108832","130785","ph:+1-310-369-7069;+1-800-778-7879","support@outkickthecoverage.com","https://twitter.com/outkick","https://facebook.com/outkickthecoverage","","","","","","","","","Bret Bielema - Bizdev - noemail","Los Angeles","CA","90035","US","2017-08-08","2019-12-03","2011-11-06","2019-12-03","-","Non-EU"
"teachingamericanhistory.org","teachingamericanhistory.org","$2000","","Education","41661","78225","24093","87163","ph:+1-419-289-5411;+1-877-289-5411","info@teachingamericanhistory.org","https://twitter.com/teachamhistory","https://facebook.com/teachamhistory","","","","","","","","","","Ashland","OH","44805","US","2019-10-21","2019-10-21","2011-01-03","2019-12-03","-","Non-EU"
"tennessee.edu","utrf.tennessee.edu","$1000","University of Tennessee","Business And Industrial","31394","32488","8856","67191","ph:+1-865-974-1000;+1-865-974-2635;+1-423-626-3423;+1-865-974-3245;+1-865-974-8646;+1-865-974-9141;+1-865-974-1528;+1-865-946-8847;+1-865-483-3572;+1-865-974-2302","stafford@tennessee.edu;amador@tennessee.edu","https://twitter.com/claiborneext","https://facebook.com/nics.utk","","","https://pinterest.com/utgardensknox","","","","","https://youtube.com/user/tennesseeedu","Randy Boyd - Board - rboyd@tennessee.edu; Timothy Mapes - Csuite - tmapes@tennessee.edu","Knoxville","TN","37996","US","2017-04-08","2019-11-25","2011-01-03","2019-12-03","-","Non-EU"
"thecornerstoneforteachers.com","thecornerstoneforteachers.com","$1000","","Education","40705","80225","208310","167596","ph:+1-813-751-6458;+1-800-721-6023;+1-800-381-0815","","","https://facebook.com/thecornerstoneforteachers","","","","","","","","https://youtube.com/user/cornerstone4teachers","Christian Teacher - Support - noemail; Angela Watson - Board - noemail","Fort Lauderdale","FL","33302","US","2017-04-08","2019-12-04","2011-01-03","2019-12-04","-","Non-EU"
"thedatingdivas.com","thedatingdivas.com","$5000","The Dating Divas","Society","40708","91708","51367","51339","ph:","ferren@thedatingdivas.com;sarina@thedatingdivas.com;becca@thedatingdivas.com;nisha@thedatingdivas.com;michelle@thedatingdivas.com;ferret@thedatingdivas.com;deardivas@thedatingdivas.com;kristen@thedatingdivas.com;tara@thedatingdivas.com;kiirsten@thedatingdivas.com;bridget@thedatingdivas.com;kari@thedatingdivas.com;wendy@thedatingdivas.com;stephanie@thedatingdivas.com;applicants@thedatingdivas.com;robin@thedatingdivas.com;divas@thedatingdivas.com;heatherlee@thedatingdivas.com","https://twitter.com/datingdivas","https://facebook.com/thedatingdivas","","https://google.com/+thedatingdivasdotcom","https://pinterest.com/thedatingdivas","","https://instagram.com/datingdivas#","","","https://youtube.com/user/datingdivaswebsite","Chrissy Site - Director - chrissy@thedatingdivas.com; Amber Newsletter - Director - amber@thedatingdivas.com; Danica Instagram - Director - danica@thedatingdivas.com; Jess Promotion - Manager - jess@thedatingdivas.com","","","","","2017-09-04","2019-12-03","2011-09-04","2019-12-03","-","Non-EU"
"thefreethoughtproject.com","thefreethoughtproject.com","$5000","Free Thought Project","Law  Govt And Politics","5954","103588","15028","150564","ph:","contact@thefreethoughtproject.com","","https://facebook.com/thefreethoughtprojectcom","","https://google.com/+thefreethoughtprojectcom","","","https://instagram.com/thefreethoughtproject","","","","Oscar Winning - Director - noemail","","","","","2017-04-08","2019-12-03","2013-11-14","2019-12-03","-","Non-EU"
"thegolfnewsnet.com","thegolfnewsnet.com","$5000","Golf News Net","Art And Entertainment","63463","397700","136906","250260","ph:+1-443-889-5000;+1-916-445-1254;+1-800-952-5210","ryan@thegolfnewsnet.com;apps@thegolfnewsnet.com;dmca@thegolfnewsnet.com","https://twitter.com/golfnewsnet","https://facebook.com/golfnewsnet","","","","","https://instagram.com/golfnewsnet","","","","Ryan Ballengee - Unknown - rballengee@thegolfnewsnet.com; Ryan Ballengee - Other - rballengee@thegolfnewsnet.com","Silver Spring","MD","20906","US","2019-05-22","2019-12-03","2013-05-30","2019-12-03","-","Non-EU"
"thegospelcoalition.org","thegospelcoalition.org","$2000","The Gospel Coalition Inc","Art And Entertainment","4592","5802","11231","28303","ph:+1-612-460-5402;+1-800-654-2240","","https://twitter.com/canadatgc","https://facebook.com/thegospelcoalition","","https://google.com/+gospelcoalition","","","https://instagram.com/thegospelcoalition","","https://vimeo.com/gospelcoalition","https://youtube.com/user/thegospelcoalition","David Sloan - Designer - david.sloan@thegospelcoalition.org; Collin Hansen - Director - collin.hansen@thegospelcoalition.org; Bethany Jenkins - Director - bethany.jenkins@thegospelcoalition.org; Kathleen Nielson - Director - kathleen.nielson@thegospelcoalition.org","Minneapolis","MN","55458","US","2017-11-06","2019-12-03","2011-01-03","2019-12-03","-","Non-EU"
"themeasuredmom.com","themeasuredmom.com","$5000","The Measured Mom LLC","Education","45833","52444","146518","51599","ph:","anna@themeasuredmom.com","https://twitter.com/measuredmom","https://facebook.com/themeasuredmom","","https://google.com/+annageigerthemeasuredmom","https://pinterest.com/themeasuredmom","","","","","","","","","","","2017-04-08","2019-12-03","2013-03-14","2019-12-03","-","Non-EU"
"thenation.com","thenation.com","$5000","The Nation","Law  Govt And Politics","2341","14240","1390","19775","ph:+1-212-209-5400;+1-800-843-9214;+1-800-333-8536","apedersen@thenation.com;ellen@thenation.com;nationbuilders@thenation.com;digital@thenation.com;press@thenation.com;studentprize@thenation.com;dcorn@thenation.com;letters@thenation.com;zoe@thenation.com;mblock@thenation.com;george@thenation.com;rkreitner@thenation.com;kpollitt@thenation.com;vic@thenation.com;studentmovement@thenation.com;shsieh@thenation.com;associates@thenation.com;permissions@thenation.com;kate@thenation.com;institute@thenation.com;tjohnson@thenation.com;fundraising@thenation.com;sbarsch@thenation.com;scabildo@thenation.com","https://twitter.com/thenation","https://facebook.com/thenationmagazine","","","","","https://instagram.com/nationmag","","","","Rafael Shemesh - Software - rafael@thenation.com; Irving Place - Other - irving@thenation.com; Andrew Pedersen - Sales - andrew@thenation.com; Ellen Bollinger - President - ellen@thenation.com; Chris Mosier - President - chris@thenation.com; Edward Sermier - Csuite - edward@thenation.com; The Nation - Other - the@thenation.com","New York City","NY","10003","US","2017-04-08","2019-12-03","2011-01-03","2019-12-03","-","Non-EU"
"thepaleomom.com","thepaleomom.com","$500","ThePaleoMom LLC","Food And Drink","25531","398068","65437","278687","ph:+1-770-668-9300","tamar@thepaleomom.com;contact@thepaleomom.com;christina@thepaleomom.com;denise@thepaleomom.com;mickey@thepaleomom.com;amy@thepaleomom.com;claire@thepaleomom.com;brooke@thepaleomom.com;angie@thepaleomom.com;consulting@thepaleomom.com;books@thepaleomom.com","https://twitter.com/thepaleomom","https://facebook.com/paleolifebox","","","https://pinterest.com/thepaleomom","","https://instagram.com/thepaleomom","","","","Amy Kubal - Other - amy@thepaleomom.com; Mickey Trescott - Other - mickey@thepaleomom.com; Angie Alt - Other - angie@thepaleomom.com; Anne Angelone - Other - anne@thepaleomom.com; Nicole Pittman - Other - nicole@thepaleomom.com; Brooke Hartle - Marketing - brooke@thepaleomom.com; Brook Hartle - Marketing - brook@thepaleomom.com; Charissa Talbot - Csuite - charissa@thepaleomom.com; Sarah Ballantyne - Csuite - sarah@thepaleomom.com","Atlanta","GA","30338","US","2017-04-08","2019-12-03","2012-04-05","2019-12-03","-","Non-EU"
"thestar.com.my","events.thestar.com.my","$10000","Star Media Group","Law  Govt And Politics","46095","3940","1840","19003","ph:+61-300-887827;+61-37-9541301;+61-351-017509","customerservice@thestar.com.my;feedback@thestar.com.my;editor@thestar.com.my","","https://facebook.com/thestaronline","","","","","","","","","N/A - Director - n/a@thestar.com.my","Petaling Jaya","10","","NL","2018-07-31","2019-11-25","2011-01-03","2019-12-03","-","Netherlands"
"thetruthaboutcancer.com","secure.thetruthaboutcancer.com;securedev.thetruthaboutcancer.com/*;checkout.thetruthaboutcancer.com/*","$2000","TTAC Publishing LLC","Health And Fitness","5713","288065","36856","120733","ph:+1-877-729-4269;+1-775-473-9225;+1-800-778-7879","info@thetruthaboutcancer.com;copyrightmanager@thetruthaboutcancer.com;support@thetruthaboutcancer.com","https://twitter.com/truthaboutbigc","https://facebook.com/thetruthaboutcancer","","https://google.com/+thetruthaboutcancer","https://pinterest.com/truthboutcancer","","https://instagram.com/thetruthaboutcancerttac","","","https://youtube.com/user/thetruthaboutcancer","Erin Connealy - Director - noemail; Charlene Bollinger - Founder - noemail; Ty Bollinger - Other - noemail","Portland","TN","37148","US","2017-04-08","2019-11-25","2014-05-21","2019-12-03","-","Non-EU"
"thomrainer.com","resources.thomrainer.com","$500","Thom Rainer","","29625","199973","127865","212269","ph:+1-800-458-2772","jonathan.howe@thomrainer.com;jonathan@thomrainer.com","https://twitter.com/thomrainer","","","","","","https://instagram.com/thomrainer","","","","Jonathan Howe - Director - jonathan.howe@thomrainer.com","Pandora","TX","78143","US","2018-07-11","2019-11-17","2011-01-03","2019-12-03","-","Non-EU"
"tigerwoods.com","thewoods.tigerwoods.com","$5000","(2) ('DMCA') ETW Corp","Art And Entertainment","3122","Outside Top 1m","35167","Outside Top 1m","ph:+1-407-876-8620;+1-561-316-3007;+1-561-320-9627","","https://twitter.com/tigerwoods","https://facebook.com/tiger","","","","","https://instagram.com/tigerwoods","","","","Beau Welling - Consultant - noemail; Shane Robichaud - Consultant - noemail; Scott Benson - Consultant - noemail; Peter Stewart - Consultant - noemail; Earl Woods - Board - noemail; Rob McNamara - President - noemail; Kathryn Battaglia - President - noemail; Glenn Greenspan - President - noemail; Bryon Bell - President - noemail; Chris Hubman - Csuite - noemail","Irvine","CA","92617","US","2017-07-05","2019-12-03","2011-01-03","2019-12-03","-","Non-EU"
"tinybuddha.com","tinybuddha.com","$1000","Tiny Buddha LLC","Technology And Computing","40748","37746","12031","56970","ph:","email@tinybuddha.com;support@tinybuddha.com;bookbonus@tinybuddha.com;questionphoto@tinybuddha.com","https://twitter.com/tinybuddha","https://facebook.com/tinybuddha","","https://google.com/+tinybuddha","","","https://instagram.com/tinybuddhaofficial","","","","Lori Deschene - Founder - noemail","","","","","2018-11-22","2019-12-03","2011-01-03","2019-12-03","-","Non-EU"
"todayshomeowner.com","todayshomeowner.com","$100","","Home And Garden","7030","90099","21149","126817","ph:+1-251-476-3325;+1-800-767-1833;+1-516-668-5313;+1-800-946-4420","simplesolutions@todayshomeowner.com;paypal@todayshomeowner.com","","https://facebook.com/todayshomeownermedia","","","https://pinterest.com/todayshomeowner","","https://instagram.com/todayshomeowner","","","","","","","","","2017-04-08","2019-11-22","2012-10-18","2019-12-03","-","Non-EU"
"tolovehonorandvacuum.com","tolovehonorandvacuum.com","$5000","","Food And Drink","30964","514479","178457","228393","ph:","toloveho@tolovehonorandvacuum.com","","","","","","","","","","","","","","","","2017-04-08","2019-12-03","2011-11-06","2019-12-03","-","Non-EU"
"totalgymdirect.com","totalgymdirect.com","$10000","Total Gym Fitness LLC","Health And Fitness","32513","80991","329390","Outside Top 1m","ph:+1-800-501-4621;+1-800-778-4211;+1-800-639-0282;+1-800-490-0874;+1-800-303-7896","privacy@totalgymdirect.com;service@totalgymdirect.com","https://twitter.com/totalgymdirect","https://facebook.com/totalgymdirect","","","https://pinterest.com/totalgymdirect","","https://instagram.com/totalgymdirect","","","","","Exton","PA","19341","US","2017-06-03","2019-12-03","2011-01-03","2019-12-03","-","Non-EU"
"trailerlife.com","rvbg.trailerlife.com","$500","Good Sam Enterprises LLC","Art And Entertainment","38138","399384","114983","237397","ph:+1-800-309-0311;+1-800-825-6861;+1-866-232-8790","","","https://facebook.com/trailerlifemagazine","","","https://pinterest.com/trailerlifemag","","https://instagram.com/trailer_life_magazine","","","","","Oxnard","CA","93036","US","2019-06-01","2019-11-17","2011-01-03","2019-12-03","-","Non-EU"
"traillifeusa.com","traillifeusa.com","$2000","","Sports","62134","Outside Top 1m","354394","Outside Top 1m","ph:+1-407-251-1957;+1-321-247-7761;+1-719-531-3386","media@traillifeusa.com;contact@traillifeusa.com;branding@traillifeusa.com;mediaphotos@traillifeusa.com;smorrow@traillifeusa.com;dabernathy@traillifeusa.com;laurab@traillifeusa.com;markh@traillifeusa.com;socialmedia@traillifeusa.com;egal@traillifeusa.com;carolync@traillifeusa.com","https://twitter.com/traillifeusa","https://facebook.com/traillifeusa","https://linkedin.com/company/trail-life-usa","","","","https://instagram.com/traillife","","https://vimeo.com/traillifeusa","https://youtube.com/user/traillifeusa","John Stemberger - Board - johns@traillifeusa.com; Faith Event - Board - faithe@traillifeusa.com; Rob Rye - Board - robr@traillifeusa.com","Arlington","TX","76011","US","2018-11-22","2019-12-03","2013-09-15","2019-12-03","-","Non-EU"
"tulane.edu","newcombartmuseum.tulane.edu","$5000","Tulane University","Education","16163","18603","2508","32500","ph:+1-504-865-5210;+1-985-871-6411;+1-504-865-5000;+1-404-679-4500;+1-504-865-5605;+1-504-862-8798;+1-504-314-7169;+1-504-862-8629;+1-504-866-0984;+1-504-314-7639","website@tulane.edu;acctrec@tulane.edu;dmca@tulane.edu;giving@tulane.edu;finaid@tulane.edu;msw@tulane.edu;tulanian@tulane.edu;advising@tulane.edu;wfmo@tulane.edu;sally@tulane.edu;linda.campbell@tulane.edu;wholly@tulane.edu;chs@tulane.edu;aduples@tulane.edu;medsch@tulane.edu;lincar@tulane.edu;ctimmons@tulane.edu;undergrad.admission@tulane.edu;sse@tulane.edu;janet.schwartz@tulane.edu;admissions@law.tulane.edu;finaid@law.tulane.edu;careers@law.tulane.edu","https://twitter.com/tulanenews","https://facebook.com/tulaneu","","","https://pinterest.com/tulaneu","","https://instagram.com/tulaneu","","https://vimeo.com/tulanearchitecture","https://youtube.com/user/tulane","Howard Tilton - Other - noemail; Caroline Richardson - Other - noemail; Neville Prendergast - Director - noemail; Doris Stone - Director - noemail; Shokufeh Ramirez - Manager - noemail","New Orleans","LA","70118","US","2019-04-11","2019-11-25","2011-01-03","2019-12-03","-","Non-EU"
"tune.pk","business.tune.pk","$500","","Business And Industrial","2222","21989","30863","72610","ph:","copyright@tune.pk","https://twitter.com/tunepkofficial","https://facebook.com/tunepkofficial","https://linkedin.com/company/tune-pk","https://google.com/+tunepk","https://pinterest.com/tunepkofficial","","https://instagram.com/tunepkofficial","","","","","","","","","2018-06-22","2019-11-17","2011-11-06","2019-12-03","-","Non-EU"
