Domain,Location on Site,Tech Spend USD,Company,Vertical,Quantcast,Alexa,Majestic,Umbrella,Telephones,Emails,Twitter,Facebook,LinkedIn,Google,Pinterest,GitHub,Instagram,Vk,Vimeo,Youtube,People,City,State,Zip,Country,First Detected,Last Found,First Indexed,Last Indexed,Exclusion,GDPR
"1000drawings.org","johannesburg.1000drawings.org","$250","","Business And Industrial","Outside Top 1m","Outside Top 1m","909040","Outside Top 1m","ph:","info@1000drawings.org","https://twitter.com/1000drawingsjhb","https://facebook.com/1000drawingsberlin","","","","","","","","","N/A - Other - noemail","","","","","2019-11-18","2019-11-18","2015-08-23","2019-12-23","-","Germany"
"1001dessous.de","1001dessous.de","$10","","","Outside Top 1m","Outside Top 1m","Outside Top 1m","Outside Top 1m","","","","","","","","","","","","","","","","","","2019-07-20","2019-11-18","2014-01-11","2019-12-23","-","Germany"
"1001weine.de","1001weine.de","$100","","","Outside Top 1m","Outside Top 1m","Outside Top 1m","Outside Top 1m","","","","","","","","","","","","","","","","","","2019-11-18","2019-11-18","2018-02-02","2019-12-23","-","Germany"
"10xcoach.club","10xcoach.club","$100","","Food And Drink","Outside Top 1m","Outside Top 1m","Outside Top 1m","Outside Top 1m","ph:+49-40-23514646","","","","","","","","","","","","","Hamburg","HH","20097","DE","2019-04-11","2019-11-18","2018-09-02","2019-12-23","-","Germany"
"111dinge.de","111dinge.de","$250","","Art And Entertainment","Outside Top 1m","Outside Top 1m","Outside Top 1m","Outside Top 1m","ph:+49-6221-3609783","info@111dinge.de","https://twitter.com/111dinge","https://facebook.com/111dinge","","","https://pinterest.com/111dinge","","https://instagram.com/111dinge","","","","","Heidelberg","BW","69115","DE","2017-06-03","2019-11-18","2017-05-31","2019-12-23","-","Germany"
"11motors.de","11motors.de","$100","11Motors GmbH","Technology And Computing","Outside Top 1m","Outside Top 1m","Outside Top 1m","Outside Top 1m","ph:","info@11motors.de","","","","","","","","","","","","","","","DE","2017-07-05","2019-11-18","2015-06-20","2019-12-23","-","Germany"
"123-photo.de","123-photo.de","$0","","Style And Fashion","Outside Top 1m","Outside Top 1m","Outside Top 1m","Outside Top 1m","ph:","","","","","","","","","","","","","Burgthann","BY","90559","DE","2017-11-07","2019-11-18","2017-10-04","2019-12-23","-","Germany"
"123ersatzteile.de","123ersatzteile.de","$100","","Automotive And Vehicles","Outside Top 1m","Outside Top 1m","Outside Top 1m","Outside Top 1m","ph:+49-9422-806091","","","","","","","","","","","","","Bogen","BY","94327","DE","2017-04-08","2019-11-18","2015-06-20","2019-12-23","-","Germany"
"12klick.com","12klick.com","$100","","Style And Fashion","Outside Top 1m","Outside Top 1m","Outside Top 1m","Outside Top 1m","ph:","info@12klick.com","","","","","","","","","","","N/A - Other - noemail","Bensheim","HE","64625","DE","2017-04-08","2019-12-14","2016-03-20","2019-12-23","-","Germany"
"13-37.org","13-37.org","$100","","Technology And Computing","Outside Top 1m","Outside Top 1m","Outside Top 1m","Outside Top 1m","ph:+49-611-88026666","info@13-37.org","","","","","","https://github.com/13-37-org","","","","","","Wiesbaden","HE","65185","DE","2018-10-14","2019-11-18","2016-11-15","2019-12-23","-","Germany"
"1337frankfurt.de","1337frankfurt.de","$250","","Business And Industrial","Outside Top 1m","Outside Top 1m","Outside Top 1m","Outside Top 1m","ph:+49-69-94410146","support@1337frankfurt.de","https://twitter.com/1337frankfurt","https://facebook.com/1337frankfurt","","","","","https://instagram.com/1337frankfurt","","","","","Dreieich","HE","63303","DE","2019-06-23","2019-11-18","2018-09-02","2019-12-23","-","Germany"
"13labels.com","13labels.com","$250","","Style And Fashion","Outside Top 1m","Outside Top 1m","Outside Top 1m","Outside Top 1m","ph:","","https://twitter.com/13labels","https://facebook.com/13labels","","","","","https://instagram.com/13labels","","","","","Leipzig","SN","04177","DE","2019-04-11","2019-11-18","2015-09-21","2019-12-23","-","Germany"
"13plus4.com","13plus4.com","$50","","","Outside Top 1m","Outside Top 1m","Outside Top 1m","Outside Top 1m","ph:","hello@13plus4.com","","","","","","","","","","","","Berlin","BE","10711","DE","2019-06-02","2019-11-18","2019-02-02","2019-12-23","-","Germany"
"14daymanicure.de","14daymanicure.de","$100","","Style And Fashion","Outside Top 1m","Outside Top 1m","Outside Top 1m","Outside Top 1m","ph:","","","","","","","","","","","","","","","","","2017-04-08","2019-11-18","2014-07-14","2019-12-23","-","Germany"
"1616pfaffmann.com","1616pfaffmann.com","$250","","","Outside Top 1m","Outside Top 1m","Outside Top 1m","Outside Top 1m","ph:","","","https://facebook.com/pfaffmannwein","","","","","https://instagram.com/1616pfaffmann","","","","","Walsheim","RP","76833","DE","2018-07-12","2019-11-18","2017-07-24","2019-12-23","-","Germany"
"1894-shop.de","1894-shop.de","$100","","","Outside Top 1m","Outside Top 1m","Outside Top 1m","Outside Top 1m","ph:+49-721-5043690","info@1894-shop.de","","","","","","","","","","","","Pfinztal","BW","76327","DE","2019-11-18","2019-11-18","2019-08-02","2019-12-23","-","Germany"
"19-coffee.de","19-coffee.de","$250","","Food And Drink","Outside Top 1m","Outside Top 1m","Outside Top 1m","Outside Top 1m","ph:","kontakt@19-coffee.de;info@19-coffee.de","","","","","","","","","","","","Braunschweig","NI","38102","DE","2017-07-05","2019-11-18","2017-05-31","2019-12-23","-","Germany"
"1a-kabelshop.com","1a-kabelshop.com","$250","Pro tronix GmbH","","Outside Top 1m","Outside Top 1m","Outside Top 1m","Outside Top 1m","ph:+49-4405-23893000","","","","","","","","","","","","","Edewecht","NI","26188","DE","2019-11-18","2019-11-18","2019-08-25","2019-12-23","-","Germany"
"1a-reinigungskontrolle.de","1a-reinigungskontrolle.de","$100","Controletti GmbH","","Outside Top 1m","Outside Top 1m","Outside Top 1m","Outside Top 1m","ph:+49-7144-1304402","","","","","","","","","","","","","","","","","2017-04-08","2019-11-18","2015-06-20","2019-12-23","-","Germany"
"1a-shopping24.de","1a-shopping24.de","$0","","Real Estate","Outside Top 1m","Outside Top 1m","Outside Top 1m","Outside Top 1m","ph:","info@1a-shopping24.de","","","","","","","","","","","","Bad Nauheim","HE","61231","DE","2017-04-08","2019-11-18","2013-02-28","2019-12-23","-","Germany"
"1agrusskarten.de","1agrusskarten.de","$250","","Law  Govt And Politics","Outside Top 1m","Outside Top 1m","Outside Top 1m","Outside Top 1m","ph:+44-1728-538503","","","","","","","","","","","","","","","","","2017-04-08","2019-11-18","2016-03-20","2019-12-23","-","Germany"
"1aquaex.de","1aquaex.de","$100","","Food And Drink","Outside Top 1m","Outside Top 1m","Outside Top 1m","Outside Top 1m","ph:","","https://twitter.com/1aquaex","https://facebook.com/1aquaex","","https://google.com/+1aquaexde1","","","","","","","","","","","","2017-04-08","2019-11-18","2013-02-28","2019-12-23","-","Germany"
"1pluswasser.de","1pluswasser.de","$10","","","Outside Top 1m","Outside Top 1m","Outside Top 1m","Outside Top 1m","","","","","","","","","","","","","","","","","","2019-07-21","2019-11-18","2019-01-12","2019-12-23","-","Germany"
"1takerecords.de","1takerecords.de","$100","","","Outside Top 1m","Outside Top 1m","Outside Top 1m","Outside Top 1m","ph:","info@1takerecords.de","","https://facebook.com/1takerecordsmusikproduktion","","","","","","","","","","Frankeneck","RP","67468","DE","2019-06-02","2019-11-18","2019-01-12","2019-12-23","-","Germany"
"21tagezuckerdetox.de","21tagezuckerdetox.de","$100","","","Outside Top 1m","Outside Top 1m","Outside Top 1m","Outside Top 1m","ph:","mail@21tagezuckerdetox.de","","","","","","","","","","","","Berlin","BE","13055","DE","2019-09-14","2019-11-18","2019-08-25","2019-12-23","-","Germany"
"22022020.de","22022020.de","$0","","","Outside Top 1m","Outside Top 1m","Outside Top 1m","Outside Top 1m","","","","","","","","","","","","","","","","","","2019-11-18","2019-11-18","2019-10-02","2019-12-23","-","Germany"
"247rent.de","247rent.de","$100","","Art And Entertainment","Outside Top 1m","Outside Top 1m","Outside Top 1m","Outside Top 1m","ph:+49-2102-5590650","","","","","","","","","","","","","Ratingen","NW","40882","DE","2017-11-07","2019-11-18","2015-01-27","2019-12-23","-","Germany"
"2drieux.de","2drieux.de","$250","","Food And Drink","Outside Top 1m","Outside Top 1m","Outside Top 1m","Outside Top 1m","ph:+44-1737-385161","info@2drieux.de","","https://facebook.com/2drieuxchampagnerselektion","","","","","","","","","","","","","","2017-04-08","2019-12-03","2015-11-10","2019-12-23","-","Germany"
"2e-mechatronic.de","2e-mechatronic.de","$100","","Technology And Computing","Outside Top 1m","Outside Top 1m","Outside Top 1m","Outside Top 1m","ph:","info@2e-mechatronic.de","","","","","","","","","","","","Kirchheim unter Teck","BW","73230","DE","2017-04-08","2019-11-19","2013-09-15","2019-12-23","-","Germany"
"2et40.de","2et40.de","$100","","Society","Outside Top 1m","Outside Top 1m","Outside Top 1m","Outside Top 1m","ph:","info@2et40.de","https://twitter.com/2et40","https://facebook.com/2et40","","","","","https://instagram.com/2et40","","","","","Dresden","SN","01099","DE","2019-06-02","2019-11-19","2015-01-27","2019-12-23","-","Germany"
"2fuer1-gutscheine.de","2fuer1-gutscheine.de","$100","","","Outside Top 1m","Outside Top 1m","Outside Top 1m","Outside Top 1m","","","","","","","","","","","","","","","","","","2019-04-11","2019-11-19","2019-01-17","2019-12-23","-","Germany"
"2go-company.de","2go-company.de","$250","Mahlwerck Porzellan GmbH","","Outside Top 1m","Outside Top 1m","Outside Top 1m","Outside Top 1m","ph:","","","","","","","","","","","","","Kolbermoor","BY","83059","DE","2017-04-08","2019-11-19","2016-07-30","2019-12-23","-","Germany"
"2stundenwoche.de","2stundenwoche.de","$250","","Technology And Computing","Outside Top 1m","Outside Top 1m","Outside Top 1m","Outside Top 1m","ph:","","","https://facebook.com/bitcoinmining2stundenwoche","","","","","","","","","","Neckarsulm","BW","74172","DE","2018-03-05","2019-11-19","2018-02-15","2019-12-23","-","Germany"
"4h-shop.de","4h-shop.de","$250","","","Outside Top 1m","Outside Top 1m","Outside Top 1m","Outside Top 1m","ph:+49-711-50451531","info@4h-shop.de","","https://facebook.com/4h-shop-335541323259015","","","","","","","","","","Stuttgart","BW","70378","DE","2017-04-08","2019-11-19","2016-03-20","2019-12-23","-","Germany"
"baby-pungi.de","baby-pungi.de","$250","","Family And Parenting","Outside Top 1m","Outside Top 1m","Outside Top 1m","Outside Top 1m","ph:+49-351-4275794","info@baby-pungi.de","","","","","","","","","","","","Dresden","SN","01157","DE","2017-04-08","2019-11-25","2016-11-22","2019-12-23","-","Germany"
"barf-alarm.de","barf-alarm.de","$250","","Health And Fitness","Outside Top 1m","Outside Top 1m","Outside Top 1m","Outside Top 1m","ph:+44-30-60984940;+49-2171-7769618","info@barf-alarm.de","","https://facebook.com/klicktipp","","","","","","","","","","Leverkusen","NW","51379","DE","2017-04-08","2019-11-25","2017-02-28","2019-12-23","-","Germany"
"bfacademy.com","bfacademy.com","$500","","Education","953957","Outside Top 1m","Outside Top 1m","Outside Top 1m","ph:","","","","","","","","","","","","","Kandern","BW","79400","DE","2017-04-08","2019-11-26","2011-01-03","2019-12-23","-","Germany"
"bridgeverein.de","bridgeverein.de","$250","","Technology And Computing","672140","Outside Top 1m","Outside Top 1m","Outside Top 1m","ph:+49-30-45086486;+49-30-44045158","post@bridgeverein.de","","","","","","","","","","","","Berlin","BE","10629","DE","2019-04-10","2019-11-27","2013-02-28","2019-12-23","-","Germany"
"cardsforlife.com","cardsforlife.com","$100","cardsforlife","Technology And Computing","405952","Outside Top 1m","Outside Top 1m","Outside Top 1m","ph:","mail@cardsforlife.com","","","","","","","","","","","","Halle","NW","33790","DE","2017-04-08","2019-11-17","2013-09-15","2019-12-23","-","Germany"
"cidoresearch.com","cidoresearch.com","$100","","Shopping","675972","Outside Top 1m","Outside Top 1m","Outside Top 1m","ph:+1-855-243-2436","contact@cidoresearch.com","","","","","","","","","","","N/A - Other - n/a@cidoresearch.com","Münster","NW","48165","DE","2017-04-08","2019-10-17","2012-10-11","2019-12-23","-","Germany"
"collectorscarworld.com","collectorscarworld.com","$250","collectorscarworld","Art And Entertainment","489605","Outside Top 1m","857743","Outside Top 1m","ph:+49-202-752575;+49-89-96051624","info@collectorscarworld.com","","https://facebook.com/collectorscarworld","","","","","https://instagram.com/collectorscarworld","","","","","Wuppertal","NW","42111","DE","2017-04-08","2019-11-25","2011-09-04","2019-12-27","-","Germany"
"compact-tours.de","compact-tours.de","$250","","Travel","557149","Outside Top 1m","Outside Top 1m","Outside Top 1m","ph:+49-30-44673930;+49-351-808090;+49-7851-7957940","","https://twitter.com/compacttours","https://facebook.com/compacttoursgmh","","","","","","","","","","Berlin","BE","10178","DE","2019-01-06","2019-11-20","2012-07-05","2019-12-23","-","Germany"
"cuckooclock.de","cuckooclock.de","$250","","Food And Drink","394813","Outside Top 1m","Outside Top 1m","Outside Top 1m","ph:","shop@cuckooclock.de","","","","","","","","","","","","Spaichingen","BW","78549","DE","2018-07-12","2019-11-30","2011-01-03","2019-12-23","-","Germany"
"k3.de","k3.de","$100","k3 stadterlebnisse GmbH","","Outside Top 1m","Outside Top 1m","Outside Top 1m","Outside Top 1m","ph:+49-511-87458045","","","","","","","","","","","","","Münster","NW","48143","DE","2017-04-08","2019-12-27","2016-05-05","2019-12-27","-","Germany"
"k5.de","k5.de","$500","K5 GmbH","Finance","Outside Top 1m","Outside Top 1m","Outside Top 1m","Outside Top 1m","ph:","","https://twitter.com/k5berlin","https://facebook.com/k5konferenz","https://linkedin.com/company/k5-gmbh","","","","https://instagram.com/k5.de","","","","","Berlin","BE","12057","DE","2018-03-20","2019-12-18","2017-12-25","2019-12-25","-","Germany"
"kadewe.de","kadewe.de","$500","KaDeWe Group","Shopping","134790","Outside Top 1m","79033","Outside Top 1m","ph:+49-30-21210","info@kadewe.de;service@kadewe.de","","https://facebook.com/kadewe","","","","","https://instagram.com/kadewe_berlin","","","","","Berlin","BE","10789","DE","2017-09-04","2019-12-27","2011-11-06","2019-12-27","-","Germany"
"kamuicosplay.com","kamuicosplay.com","$250","KamuiCosplay","Hobbies And Interests","190733","Outside Top 1m","382103","Outside Top 1m","ph:","shop@kamuicosplay.com;info@kamuicosplay.com","https://twitter.com/kamuicosplay","https://facebook.com/kamuicos","","","","","https://instagram.com/kamuicosplay","","","","N/A - Other - noemail","Nürnberg","BY","90429","DE","2017-04-17","2019-12-26","2012-09-27","2019-12-26","-","Germany"
"kirnbacher-hof.de","kirnbacher-hof.de","$250","","Travel","586736","Outside Top 1m","Outside Top 1m","Outside Top 1m","ph:+49-781-9672147","info@kirnbacher-hof.de","","","","","","","","","","","","Offenburg","BW","77652","DE","2018-07-12","2019-12-13","2013-02-28","2019-12-23","-","Germany"
"natura-naturans.de","natura-naturans.de","$100","","","937672","Outside Top 1m","Outside Top 1m","Outside Top 1m","ph:+49-89-2725902","info@natura-naturans.de","","","","","","","","","","","","Gilching","BY","82205","DE","2018-07-30","2019-11-17","2011-11-06","2019-12-23","-","Germany"
"tezer-design.de","tezer-design.de","$100","tezer-design","Art And Entertainment","426690","Outside Top 1m","Outside Top 1m","Outside Top 1m","ph:+49-69-30850716","info@tezer-design.de","","https://facebook.com/tezer.design.de","","","","","https://instagram.com/tezerdesign","","","","","Frankfurt","HE","60596","DE","2017-04-08","2019-11-17","2014-01-11","2019-12-23","-","Germany"
