Domain,Location on Site,Tech Spend USD,Company,Vertical,Quantcast,Alexa,Majestic,Umbrella,Telephones,Emails,Twitter,Facebook,LinkedIn,Google,Pinterest,GitHub,Instagram,Vk,Vimeo,Youtube,People,City,State,Zip,Country,First Detected,Last Found,First Indexed,Last Indexed,Exclusion,GDPR
"1000momente.de","1000momente.de","$0","","Society","Outside Top 1m","Outside Top 1m","Outside Top 1m","Outside Top 1m","ph:+49-211-17175996;+49-211-538154890","","https://twitter.com/1000momente","","","","","","https://instagram.com/1000momente.de","","","","","Düsseldorf","NW","40239","DE","2017-03-03","2019-10-30","2013-02-28","2019-12-23","-","Germany"
"100affen.de","100affen.de","$500","","","Outside Top 1m","Outside Top 1m","Outside Top 1m","Outside Top 1m","ph:","info@100affen.de","","https://facebook.com/100affen","","","","","https://instagram.com/100affen","","","","","Münster","NW","48155","DE","2016-06-29","2019-11-16","2016-06-29","2019-12-23","-","Germany"
"123ersatzteile.de","123ersatzteile.de","$100","","Automotive And Vehicles","Outside Top 1m","Outside Top 1m","Outside Top 1m","Outside Top 1m","ph:+49-9422-806091","","","","","","","","","","","","","Bogen","BY","94327","DE","2015-06-20","2019-12-23","2015-06-20","2019-12-23","-","Germany"
"bavaria.by","bavaria.by","$250","BAYERN TOURISMUS Marketing GmbH","Travel","976091","Outside Top 1m","157778","Outside Top 1m","ph:+49-89-2123970;+1-212-661-7200","","https://twitter.com/visit_bavaria","https://facebook.com/visit.bavaria","","","","","","","","","N/A - Director - noemail; N/A - Manager - noemail","München","BY","81925","DE","2018-03-05","2019-12-26","2011-10-02","2019-12-26","-","Germany"
"bayern.by","bayern.by","$250","BAYERN TOURISMUS Marketing GmbH","Art And Entertainment","271229","Outside Top 1m","113160","Outside Top 1m","ph:+49-89-2123970","","https://twitter.com/bayernnews","https://facebook.com/dein.bayern","","","https://pinterest.com/deinbayern","","https://instagram.com/bayern","","","https://youtube.com/user/bayerntourismus","N/A - Marketing - noemail; N/A - Manager - noemail","München","BY","81925","DE","2018-03-09","2019-12-23","2011-01-03","2019-12-23","-","Germany"
"betaklinik.de","betaklinik.de","$250","Beta Klinik GmbH","Sports","655618","Outside Top 1m","Outside Top 1m","Outside Top 1m","ph:+49-228-9090750","info@betaklinik.de;international@betaklinik.de;marketing@betaklinik.de","https://twitter.com/betaklinik","","","","","","","","","https://youtube.com/user/betaklinik","","Bonn","NW","53227","DE","2019-11-26","2019-12-26","2011-04-03","2019-12-26","-","Germany"
"bigparts.de","bigparts.de","$250","","Automotive And Vehicles","868744","Outside Top 1m","Outside Top 1m","Outside Top 1m","ph:+49-4821-439681;+49-4821-4031135","","","","","","","","","","","","","Itzehoe","SH","25524","DE","2017-08-08","2019-12-23","2013-02-28","2019-12-23","-","Germany"
"bischofsgruen.de","bischofsgruen.de","$250","","Science","668396","Outside Top 1m","Outside Top 1m","Outside Top 1m","ph:","","https://twitter.com/bischofsgrun","","","","","","https://instagram.com/bischofsgruen_fichtelgebirge","","","","","Bischofsgrün","BY","95493","DE","2019-01-06","2019-12-29","2011-12-04","2019-12-29","-","Germany"
"bome.com","bome.com","$100","Bome Software GmbH","Technology And Computing","49732","Outside Top 1m","176140","Outside Top 1m","ph:","shop@bome.com;privacy@bome.com","","https://facebook.com/bomesoftware","","","","","","","","","","München","BY","80637","DE","2015-05-27","2019-12-26","2011-01-03","2019-12-26","-","Germany"
"breuninger.com","live.breuninger.com","$2000","Breuninger GmbH","Style And Fashion","694870","17900","117572","114940","ph:","","https://twitter.com/breuninger","https://facebook.com/breuninger.de","","","","","https://instagram.com/breuninger","","","https://youtube.com/user/breuningerfashiontv","","Stuttgart","BW","70173","DE","2019-05-02","2019-12-23","2011-12-18","2019-12-26","-","Germany"
"callwey.de","callwey.de","$500","Callwey GmbH","Travel","105402","Outside Top 1m","195863","Outside Top 1m","ph:+49-89-4360050","info@callwey.de","https://twitter.com/callwey","https://facebook.com/callwey","","","https://pinterest.com/callweyverlag","","https://instagram.com/callwey","","","","","München","BY","81673","DE","2017-03-02","2019-12-23","2011-12-18","2019-12-23","-","Germany"
"cardsforlife.com","cardsforlife.com","$100","cardsforlife","Technology And Computing","405952","Outside Top 1m","Outside Top 1m","Outside Top 1m","ph:","mail@cardsforlife.com","","","","","","","","","","","","Halle","NW","33790","DE","2013-09-15","2019-12-18","2013-09-15","2019-12-23","-","Germany"
"casinomeister.com","casinomeister.com","$250","","Art And Entertainment","332352","597606","187893","Outside Top 1m","ph:","info@casinomeister.com","https://twitter.com/casinomeister","https://facebook.com/casinomeister-290104147677198","","","","","","","","https://youtube.com/user/casinomeister","N/A - Director - n/a@casinomeister.com","Haibach","BY","63808","DE","2017-12-18","2019-12-26","2011-01-03","2019-12-26","-","Germany"
"cazcrafts.de","cazcrafts.de","$250","","Style And Fashion","752624","Outside Top 1m","Outside Top 1m","Outside Top 1m","ph:","","","","","","","","","","","","","","","","","2018-09-12","2019-12-23","2013-09-15","2019-12-23","-","Germany"
"chip.de","digito.chip.de;gopro-max-testblog.chip.de","$10000","CHIP Digital GmbH","Technology And Computing","24944","604","3084","13791","ph:+61-247-805880;+61-73-5119807;+61-246-805870","info@chip.de","https://twitter.com/chip_online","https://facebook.com/free2play.de","","","","","https://instagram.com/chip_de","","","","N/A - Unknown - n/a@chip.de","München","BY","81541","DE","2019-01-02","2019-12-27","2011-01-03","2019-12-27","-","Germany"
"choosybookworm.com","choosybookworm.com","$500","","Business And Industrial","193044","Outside Top 1m","Outside Top 1m","Outside Top 1m","ph:","admin@choosybookworm.com","","https://facebook.com/choosybookworm","","","","","","","","","","Hanau","HE","63457","DE","2014-03-05","2019-12-26","2014-01-11","2019-12-26","-","Germany"
"christuskirche.com","wpd.christuskirche.com","$100","","","619929","Outside Top 1m","Outside Top 1m","Outside Top 1m","ph:","kontakt@christuskirche.com","","","","","","","","","","","N/A - Other - noemail","Bensheim","HE","64625","DE","2019-04-02","2019-12-23","2013-02-28","2019-12-23","-","Germany"
"cidoresearch.com","cidoresearch.com","$100","","Shopping","675972","Outside Top 1m","Outside Top 1m","Outside Top 1m","ph:+1-855-243-2436","contact@cidoresearch.com","","","","","","","","","","","N/A - Other - n/a@cidoresearch.com","Münster","NW","48165","DE","2015-04-28","2019-10-17","2012-10-11","2019-12-23","-","Germany"
"cml-jagd.de","cml-jagd.de","$100","","","416327","Outside Top 1m","Outside Top 1m","Outside Top 1m","ph:","info@cml-jagd.de","","","","","","","","","","","","Luhden","NI","31711","DE","2017-10-04","2019-12-23","2014-01-11","2019-12-23","-","Germany"
"cntt.info","cntt.info","$10000","","Law  Govt And Politics","802017","Outside Top 1m","Outside Top 1m","Outside Top 1m","ph:","","","","","","","","","","","","","Berlin","BE","12689","DE","2019-08-25","2019-11-17","2012-05-11","2019-12-23","-","Germany"
"collectorscarworld.com","collectorscarworld.com","$250","collectorscarworld","Art And Entertainment","489605","Outside Top 1m","857743","Outside Top 1m","ph:+49-202-752575;+49-89-96051624","info@collectorscarworld.com","","https://facebook.com/collectorscarworld","","","","","https://instagram.com/collectorscarworld","","","","","Wuppertal","NW","42111","DE","2015-10-12","2019-11-25","2011-09-04","2019-12-27","-","Germany"
"compact-tours.de","compact-tours.de","$250","","Travel","557149","Outside Top 1m","Outside Top 1m","Outside Top 1m","ph:+49-30-44673930;+49-351-808090;+49-7851-7957940","","https://twitter.com/compacttours","https://facebook.com/compacttoursgmh","","","","","","","","","","Berlin","BE","10178","DE","2015-12-10","2019-12-23","2012-07-05","2019-12-23","-","Germany"
"cuckooclock.de","cuckooclock.de","$250","","Food And Drink","394813","Outside Top 1m","Outside Top 1m","Outside Top 1m","ph:","shop@cuckooclock.de","","","","","","","","","","","","Spaichingen","BW","78549","DE","2018-04-02","2019-12-23","2011-01-03","2019-12-23","-","Germany"
"cuscadi.de","cuscadi.de","$100","","Business And Industrial","935228","Outside Top 1m","Outside Top 1m","Outside Top 1m","ph:+49-6106-6392424","mail@cuscadi.de","https://twitter.com/cuscadi","https://facebook.com/cuscadi","","","","","","","","","","Rodgau","HE","63110","DE","2015-04-01","2019-12-23","2012-09-06","2019-12-23","-","Germany"
"k5.de","k5.de","$500","K5 GmbH","Finance","Outside Top 1m","Outside Top 1m","Outside Top 1m","Outside Top 1m","ph:","","https://twitter.com/k5berlin","https://facebook.com/k5konferenz","https://linkedin.com/company/k5-gmbh","","","","https://instagram.com/k5.de","","","","","Berlin","BE","12057","DE","2018-03-08","2019-12-25","2017-12-25","2019-12-25","-","Germany"
"kadewe.de","kadewe.de","$500","KaDeWe Group","Shopping","134790","Outside Top 1m","79033","Outside Top 1m","ph:+49-30-21210","info@kadewe.de;service@kadewe.de","","https://facebook.com/kadewe","","","","","https://instagram.com/kadewe_berlin","","","","","Berlin","BE","10789","DE","2017-09-04","2019-12-27","2011-11-06","2019-12-27","-","Germany"
"kamuicosplay.com","kamuicosplay.com","$250","KamuiCosplay","Hobbies And Interests","190733","Outside Top 1m","382103","Outside Top 1m","ph:","shop@kamuicosplay.com;info@kamuicosplay.com","https://twitter.com/kamuicosplay","https://facebook.com/kamuicos","","","","","https://instagram.com/kamuicosplay","","","","N/A - Other - noemail","Nürnberg","BY","90429","DE","2014-12-31","2019-12-26","2012-09-27","2019-12-26","-","Germany"
"kirnbacher-hof.de","kirnbacher-hof.de","$250","","Travel","586736","Outside Top 1m","Outside Top 1m","Outside Top 1m","ph:+49-781-9672147","info@kirnbacher-hof.de","","","","","","","","","","","","Offenburg","BW","77652","DE","2018-07-12","2019-12-23","2013-02-28","2019-12-23","-","Germany"
"klapp-cosmetics.com","klapp-cosmetics.com","$100","Klapp Cosmetics GmbH","Style And Fashion","400023","Outside Top 1m","987612","Outside Top 1m","ph:","info@klapp-cosmetics.com","https://twitter.com/klappskincare","https://facebook.com/klappcosmetics","","","","","https://instagram.com/klappcosmetics","","","https://youtube.com/user/klappgroup","N/A - Other - n/a@klapp-cosmetics.com","Hessisch Lichtenau","HE","37235","DE","2017-04-03","2019-12-23","2011-12-18","2019-12-23","-","Germany"
"neheleniapatterns.com","neheleniapatterns.com","$100","","Art And Entertainment","792495","Outside Top 1m","Outside Top 1m","Outside Top 1m","ph:+49-5453-3329331","info@neheleniapatterns.com","https://twitter.com/neheleniashop","https://facebook.com/neheleniapatterns","","","","","https://instagram.com/neheleniapatterns","","","","","Recke","NW","49509","DE","2016-10-03","2019-12-23","2011-09-04","2019-12-23","-","Germany"
"newsletter2go.de","newsletter2go.de","$1000","Newsletter2Go GmbH","Business And Industrial","765715","Outside Top 1m","24152","Outside Top 1m","ph:+49-30-31199510;+44-30-31199510","info@newsletter2go.de;support@newsletter2go.de","https://twitter.com/newsletter2go","https://facebook.com/newsletter2go","","https://google.com/+newsletter2gode","","","","","","https://youtube.com/user/newsletter2go","","Berlin","BE","10625","DE","2018-03-20","2019-12-26","2011-12-04","2019-12-26","-","Germany"
"niedersachsen.de","feuerwehr.niedersachsen.de","$500","Niedersachsen GmbH","Sports","941150","Outside Top 1m","7148","45334","ph:+61-4-75190202","info@feuerwehr.niedersachsen.de","","","","","","","","","","","","Hannover","NI","","DE","2018-01-02","2019-12-27","2011-01-03","2019-12-28","-","Germany"
"nilles-wein.de","nilles-wein.de","$100","","Technology And Computing","484106","Outside Top 1m","Outside Top 1m","Outside Top 1m","ph:","info@nilles-wein.de","","","","","","","","","","","","","","","","2015-07-21","2019-12-18","2013-03-14","2019-12-23","-","Germany"
"nobels.com","nobels.com","$250","","Business And Industrial","828558","Outside Top 1m","Outside Top 1m","Outside Top 1m","ph:","","https://twitter.com/nobelsofficial","https://facebook.com/nobelspedals","","","","","https://instagram.com/nobelsofficial","","","","","Leipzig","SN","04356","DE","2018-07-02","2019-12-23","2011-10-02","2019-12-23","-","Germany"
"nw.de","laufgehts.nw.de","$5000","","Art And Entertainment","Outside Top 1m","75460","19477","164554","ph:","","https://twitter.com/nwnews","","","","https://pinterest.com/nwpins","","https://instagram.com/nw.de","","","","","Bielefeld","NW","33602","DE","2019-01-17","2019-12-29","2016-03-16","2019-12-29","-","Germany"
"op-online.de","reisen.op-online.de","$1000","Pressehaus Bintz Verlag GmbH","Art And Entertainment","265453","Outside Top 1m","46484","186666","ph:+49-6104-406690;+49-69-850080;+61-300-000000;+61-800-000000;+49-89-53060","support@op-online.de;info@op-online.de","","","","","","","","","","","","Offenbach","HE","63071","DE","2018-12-02","2019-12-23","2011-01-03","2019-12-27","-","Germany"
"oz-verlag.de","oz-verlag.de","$250","Oz Verlags GmbH","Style And Fashion","151207","Outside Top 1m","434461","Outside Top 1m","ph:","info@oz-verlag.de","","","","","","","","","","","","Rheinfelden","BW","79618","DE","2017-06-01","2019-12-23","2013-02-28","2019-12-23","-","Germany"
"teammovies.com","tattoodesign.teammovies.com;foxviewshop.teammovies.com;movies.teammovies.com;lebon-choix.teammovies.com","$250","Teammovies.com Inc","Art And Entertainment","713274","Outside Top 1m","Outside Top 1m","Outside Top 1m","ph:+1-516-619-6063","info@teammovies.com","https://twitter.com/teammovies","https://facebook.com/teammoviescom","","https://google.com/+teammovieschannel","","","https://instagram.com/teammovieshd","","","","","Steinfeld","BY","97854","DE","2018-07-02","2019-12-23","2013-02-28","2019-12-23","-","Germany"
"tempelherrenorden.de","tempelherrenorden.de/*","$250","","","717032","Outside Top 1m","Outside Top 1m","Outside Top 1m","ph:","info@tempelherrenorden.de","","","","","","","","","","","","Hannover","NI","30419","DE","2018-07-12","2019-12-23","2013-02-28","2019-12-23","-","Germany"
"templates-to-go.de","templates-to-go.de","$500","","Technology And Computing","781382","Outside Top 1m","Outside Top 1m","Outside Top 1m","ph:+44-74-73209154;+49-7473-209154","info@templates-to-go.de","https://twitter.com/templatestogo","https://facebook.com/templatestogo","","","","","","","","https://youtube.com/user/templatestogo","","Mössingen","BW","72116","DE","2019-03-02","2019-12-23","2013-02-28","2019-12-23","-","Germany"
"tezer-design.de","tezer-design.de","$100","tezer-design","Art And Entertainment","426690","Outside Top 1m","Outside Top 1m","Outside Top 1m","ph:+49-69-30850716","info@tezer-design.de","","https://facebook.com/tezer.design.de","","","","","https://instagram.com/tezerdesign","","","","","Frankfurt","HE","60596","DE","2015-02-11","2019-12-23","2014-01-11","2019-12-23","-","Germany"
"thebowtie.com","thebowtie.com","$250","","Style And Fashion","713330","Outside Top 1m","Outside Top 1m","Outside Top 1m","ph:+49-40-45069901","","https://twitter.com/thebowtiecom","https://facebook.com/thebowtiecom","","","https://pinterest.com/thebowtiecom","","https://instagram.com/thebowtiecom","","","","N/A - Other - noemail","Hamburg","HH","20146","DE","2013-09-15","2019-12-23","2013-09-15","2019-12-23","-","Germany"
"thomann.de","thomann.de/*","$250","Musikhaus Thomann e. K","Technology And Computing","278901","5310","6776","20211","ph:+49-9546-9223476","international@thomann.de;export@thomann.de;social@thomann.de","https://twitter.com/thomann","","","","https://pinterest.com/thomannde","","https://instagram.com/thomann.music","","","https://youtube.com/user/musikhausthomann","N/A - Other - n/a@thomann.de","Burgebrach","BY","","DE","2017-07-06","2019-12-23","2011-01-03","2019-12-27","-","Germany"
"thyssenkrupp.com","moments.thyssenkrupp.com","$1000","ThyssenKrupp Group","Business And Industrial","286218","160568","17639","108876","ph:+49-201-844536236;+49-203-5244498","compliance@thyssenkrupp.com;info@thyssenkrupp.com;press@thyssenkrupp.com","https://twitter.com/thyssenkrupp_en","https://facebook.com/thyssenkrupp","https://linkedin.com/company/thyssenkrupp","https://google.com/+thyssenkrupp","","","https://instagram.com/thyssenkrupp","","","https://youtube.com/user/thyssenkrupp","","Essen","NW","45143","DE","2016-05-05","2019-12-27","2011-01-03","2019-12-27","-","Germany"
"timocom.com","shop.timocom.com","$250","TimoCom Soft und Hardware GmbH","Business And Industrial","843322","Outside Top 1m","675685","Outside Top 1m","ph:+49-211-882622000;+49-211-882688260","info@timocom.com","https://twitter.com/timocom_uk","","https://linkedin.com/company/timocom-gmbh","https://google.com/+timocom","","","https://instagram.com/timocom","","","https://youtube.com/user/timocom","N/A - Director - n/a@timocom.com; N/A - Manager - n/a@timocom.com","Erkrath","NW","40699","DE","2018-08-05","2019-12-23","2011-11-06","2019-12-23","-","Germany"
"to.com","blog.to.com;devblog.to.com","$250","Thinking Objects GmbH","Food And Drink","Outside Top 1m","Outside Top 1m","766642","Outside Top 1m","ph:+49-711-88770400;+49-711-88770449","info@to.com","","https://facebook.com/topalisgruppe","","","","","","","","","N/A - Marketing - n/a@to.com; N/A - Other - n/a@to.com","Korntal-Münchingen","BW","70825","DE","2018-05-02","2019-12-27","2016-03-16","2019-12-27","-","Germany"
"toshiba-memory.com","apac.toshiba-memory.com","$2000","Toshiba of Europe Ltd. Zweigniederlassung Deutschland","Technology And Computing","464573","62629","15838","Outside Top 1m","ph:","","","https://facebook.com/toshibamemory","","","","","","","","https://youtube.com/user/toshibaelectronics1","","Neuss","NW","41460","DE","2018-09-15","2019-12-23","2011-01-03","2019-12-29","-","Germany"
"transporterhaus.de","transporterhaus.de","$250","","Travel","540321","Outside Top 1m","Outside Top 1m","Outside Top 1m","ph:","","https://twitter.com/transporterhaus","https://facebook.com/transporterhaus","","","","","https://instagram.com/transporterhaus","","","","","","","","","2015-08-26","2019-12-23","2013-03-14","2019-12-23","-","Germany"
"traum-ferienwohnungen.de","ppc.traum-ferienwohnungen.de","$2000","TraumFerienwohnungen","Business And Industrial","564159","33604","38676","164940","ph:+49-421-14629600","support@traum-ferienwohnungen.de;info@traum-ferienwohnungen.de;post@traum-ferienwohnungen.de","https://twitter.com/traumfewo","https://facebook.com/traumferienwohnungen","","https://google.com/+traum-ferienwohnungen","https://pinterest.com/traumfewo","","https://instagram.com/traumferienwohnungen","","","https://youtube.com/user/traumfewode","","Bremen","HB","28217","DE","2019-01-16","2019-12-23","2011-11-06","2019-12-28","-","Germany"
"trendkomm.de","trendkomm.de","$250","","Business And Industrial","519795","Outside Top 1m","Outside Top 1m","Outside Top 1m","ph:+49-30-24531491","info@trendkomm.de","","https://facebook.com/trendkomm-1944622449116682","","","","","","","","","","Berlin","BE","13189","DE","2019-01-17","2019-12-23","2013-06-14","2019-12-23","-","Germany"
